----------------------------------------------------------------
| PERPLEXITY AND PROBABILITY VALUES OF EACH E-MAIL IN TEST SET |
----------------------------------------------------------------

1. E-Mail

Smoothed Bigram Probability: -269.76528092382364
Smoothed Bigram Perplexity: 344.93124986370674
Smoothed Trigram Probability: -373.09784989809515
Smoothed Trigram Perplexity: 1617.9357118130135


2. E-Mail

Smoothed Bigram Probability: -1699.8970482761106
Smoothed Bigram Perplexity: 696.448319586698
Smoothed Trigram Probability: -2325.6071887200374
Smoothed Trigram Perplexity: 4061.131201308826


3. E-Mail

Smoothed Bigram Probability: -785.0802994418387
Smoothed Bigram Perplexity: 484.84071286003075
Smoothed Trigram Probability: -1081.9949596499757
Smoothed Trigram Perplexity: 2279.6351265389153


4. E-Mail

Smoothed Bigram Probability: -2543.9913017020153
Smoothed Bigram Perplexity: 1460.6155208330858
Smoothed Trigram Probability: -3308.9148744699537
Smoothed Trigram Perplexity: 9299.437811141526


5. E-Mail

Smoothed Bigram Probability: -140.08659607569896
Smoothed Bigram Perplexity: 432.15716026981124
Smoothed Trigram Probability: -200.1020879993887
Smoothed Trigram Perplexity: 2220.67517669649


6. E-Mail

Smoothed Bigram Probability: -1099.6746162787879
Smoothed Bigram Perplexity: 1759.7120880297189
Smoothed Trigram Probability: -1416.043543684298
Smoothed Trigram Perplexity: 12553.511066424126


7. E-Mail

Smoothed Bigram Probability: -292.851757704468
Smoothed Bigram Perplexity: 868.1047083829732
Smoothed Trigram Probability: -386.1759545372429
Smoothed Trigram Perplexity: 4293.678871463745


8. E-Mail

Smoothed Bigram Probability: -62.74988941874415
Smoothed Bigram Perplexity: 499.47543551019226
Smoothed Trigram Probability: -81.55557796454534
Smoothed Trigram Perplexity: 1171.748510507335


9. E-Mail

Smoothed Bigram Probability: -992.7345072092326
Smoothed Bigram Perplexity: 441.1914815752845
Smoothed Trigram Probability: -1413.2809115522361
Smoothed Trigram Perplexity: 3070.5252824437507


10. E-Mail

Smoothed Bigram Probability: -131.78411807195053
Smoothed Bigram Perplexity: 122.4463716642473
Smoothed Trigram Probability: -205.78517953467482
Smoothed Trigram Perplexity: 654.3287254181785


11. E-Mail

Smoothed Bigram Probability: -2293.869727213764
Smoothed Bigram Perplexity: 1101.42304448873
Smoothed Trigram Probability: -3098.023296954703
Smoothed Trigram Perplexity: 8288.553365829752


12. E-Mail

Smoothed Bigram Probability: -1904.776958420805
Smoothed Bigram Perplexity: 1414.236284143902
Smoothed Trigram Probability: -2485.027126307812
Smoothed Trigram Perplexity: 9078.836301244366


13. E-Mail

Smoothed Bigram Probability: -1904.776958420805
Smoothed Bigram Perplexity: 1414.236284143902
Smoothed Trigram Probability: -2485.027126307812
Smoothed Trigram Perplexity: 9078.836301244366


14. E-Mail

Smoothed Bigram Probability: -327.6885640891085
Smoothed Bigram Perplexity: 463.50711609350907
Smoothed Trigram Probability: -455.5382911362535
Smoothed Trigram Perplexity: 2680.8174709153527


15. E-Mail

Smoothed Bigram Probability: -3455.787129260126
Smoothed Bigram Perplexity: 2006.899686856365
Smoothed Trigram Probability: -4464.338425105505
Smoothed Trigram Perplexity: 14914.26279152977


16. E-Mail

Smoothed Bigram Probability: -343.33162258571394
Smoothed Bigram Perplexity: 524.588619477461
Smoothed Trigram Probability: -455.7291693098959
Smoothed Trigram Perplexity: 2218.4642555185073


17. E-Mail

Smoothed Bigram Probability: -591.6102006833454
Smoothed Bigram Perplexity: 671.2182379186578
Smoothed Trigram Probability: -762.3467641415847
Smoothed Trigram Perplexity: 2999.9204878182973


18. E-Mail

Smoothed Bigram Probability: -1940.824979135455
Smoothed Bigram Perplexity: 834.1279528214944
Smoothed Trigram Probability: -2507.7959905594776
Smoothed Trigram Perplexity: 4620.28760521264


19. E-Mail

Smoothed Bigram Probability: -122.16199106690833
Smoothed Bigram Perplexity: 282.8969353609735
Smoothed Trigram Probability: -166.94572065996252
Smoothed Trigram Perplexity: 904.0987251329335


20. E-Mail

Smoothed Bigram Probability: -875.8177795214235
Smoothed Bigram Perplexity: 522.4138276112798
Smoothed Trigram Probability: -1222.9211106786097
Smoothed Trigram Perplexity: 2971.5328409921276


21. E-Mail

Smoothed Bigram Probability: -173.82124756310543
Smoothed Bigram Perplexity: 239.01639951813033
Smoothed Trigram Probability: -242.87742252821724
Smoothed Trigram Perplexity: 840.4958588964066


22. E-Mail

Smoothed Bigram Probability: -1842.0233105536463
Smoothed Bigram Perplexity: 1414.465758788611
Smoothed Trigram Probability: -2405.4007572177
Smoothed Trigram Perplexity: 9053.540887701916


23. E-Mail

Smoothed Bigram Probability: -235.93237941943045
Smoothed Bigram Perplexity: 1224.459668847525
Smoothed Trigram Probability: -305.73524843902715
Smoothed Trigram Perplexity: 4801.967545077391


24. E-Mail

Smoothed Bigram Probability: -1353.1661852769469
Smoothed Bigram Perplexity: 3484.3225814348307
Smoothed Trigram Probability: -1649.1086700880005
Smoothed Trigram Perplexity: 16108.083149688757


25. E-Mail

Smoothed Bigram Probability: -29.43925282115628
Smoothed Bigram Perplexity: 164.25724610266073
Smoothed Trigram Probability: -44.76552281122347
Smoothed Trigram Perplexity: 495.6247978788036


26. E-Mail

Smoothed Bigram Probability: -1620.312846282498
Smoothed Bigram Perplexity: 2311.432237835165
Smoothed Trigram Probability: -2060.9975154231734
Smoothed Trigram Perplexity: 14585.00327855699


27. E-Mail

Smoothed Bigram Probability: -495.02378046397206
Smoothed Bigram Perplexity: 734.0263715519502
Smoothed Trigram Probability: -645.1041610172571
Smoothed Trigram Perplexity: 3394.931062261823


28. E-Mail

Smoothed Bigram Probability: -107.44588557926309
Smoothed Bigram Perplexity: 204.32276067451667
Smoothed Trigram Probability: -163.1929328663074
Smoothed Trigram Perplexity: 1175.9070444205174


29. E-Mail

Smoothed Bigram Probability: -251.11128022806383
Smoothed Bigram Perplexity: 404.2235774333977
Smoothed Trigram Probability: -348.010315408854
Smoothed Trigram Perplexity: 1878.443954084777


30. E-Mail

Smoothed Bigram Probability: -485.87199808428625
Smoothed Bigram Perplexity: 841.8620053710339
Smoothed Trigram Probability: -653.4339854292534
Smoothed Trigram Perplexity: 4391.899602476432


31. E-Mail

Smoothed Bigram Probability: -84.2536751829033
Smoothed Bigram Perplexity: 1480.336455332038
Smoothed Trigram Probability: -104.45386230955027
Smoothed Trigram Perplexity: 3117.091308849745


32. E-Mail

Smoothed Bigram Probability: -126.89206281457474
Smoothed Bigram Perplexity: 244.00280556879707
Smoothed Trigram Probability: -180.03169625148666
Smoothed Trigram Perplexity: 1025.2506214864284


33. E-Mail

Smoothed Bigram Probability: -14084.221289241415
Smoothed Bigram Perplexity: 1296.8877962423733
Smoothed Trigram Probability: -18339.74707159869
Smoothed Trigram Perplexity: 8554.678457831229


34. E-Mail

Smoothed Bigram Probability: -123.58348405065001
Smoothed Bigram Perplexity: 1259.4897544259668
Smoothed Trigram Probability: -159.62240118688973
Smoothed Trigram Perplexity: 4968.677692855479


35. E-Mail

Smoothed Bigram Probability: -222.05395566470582
Smoothed Bigram Perplexity: 372.35547394471024
Smoothed Trigram Probability: -307.3280795394199
Smoothed Trigram Perplexity: 1212.9205337705587


36. E-Mail

Smoothed Bigram Probability: -2656.4483422016283
Smoothed Bigram Perplexity: 1727.9569838803575
Smoothed Trigram Probability: -3476.104240201262
Smoothed Trigram Perplexity: 13174.401151866728


37. E-Mail

Smoothed Bigram Probability: -201.052210245816
Smoothed Bigram Perplexity: 263.5784132198507
Smoothed Trigram Probability: -288.3375157615345
Smoothed Trigram Perplexity: 1258.7433316478764


38. E-Mail

Smoothed Bigram Probability: -371.5493097354181
Smoothed Bigram Perplexity: 305.84382274953015
Smoothed Trigram Probability: -537.3052973398318
Smoothed Trigram Perplexity: 1717.5137656872132


39. E-Mail

Smoothed Bigram Probability: -657.5572241955545
Smoothed Bigram Perplexity: 1386.6771864216603
Smoothed Trigram Probability: -853.3679276329912
Smoothed Trigram Perplexity: 7803.021097376176


40. E-Mail

Smoothed Bigram Probability: -804.5180628342107
Smoothed Bigram Perplexity: 1273.2801279560608
Smoothed Trigram Probability: -1056.2322229191084
Smoothed Trigram Perplexity: 7542.780706555651


41. E-Mail

Smoothed Bigram Probability: -1025.2850947096545
Smoothed Bigram Perplexity: 816.0427336681954
Smoothed Trigram Probability: -1373.1001078278334
Smoothed Trigram Perplexity: 4225.006331249309


42. E-Mail

Smoothed Bigram Probability: -1025.2850947096545
Smoothed Bigram Perplexity: 816.0427336681954
Smoothed Trigram Probability: -1373.1001078278334
Smoothed Trigram Perplexity: 4225.006331249309


43. E-Mail

Smoothed Bigram Probability: -483.3621831123147
Smoothed Bigram Perplexity: 628.3508813632491
Smoothed Trigram Probability: -665.2259464670994
Smoothed Trigram Perplexity: 3766.567734527507


44. E-Mail

Smoothed Bigram Probability: -591.6102006833454
Smoothed Bigram Perplexity: 671.2182379186578
Smoothed Trigram Probability: -762.3467641415847
Smoothed Trigram Perplexity: 2999.9204878182973


45. E-Mail

Smoothed Bigram Probability: -1940.824979135455
Smoothed Bigram Perplexity: 834.1279528214944
Smoothed Trigram Probability: -2507.7959905594776
Smoothed Trigram Perplexity: 4620.28760521264


46. E-Mail

Smoothed Bigram Probability: -2624.093029852349
Smoothed Bigram Perplexity: 1035.1486567264767
Smoothed Trigram Probability: -3517.5759709983236
Smoothed Trigram Perplexity: 6441.366096521376


47. E-Mail

Smoothed Bigram Probability: -1614.2408479574524
Smoothed Bigram Perplexity: 1089.1638580740582
Smoothed Trigram Probability: -2133.676642535796
Smoothed Trigram Perplexity: 5703.537110236237


48. E-Mail

Smoothed Bigram Probability: -165.7878934696831
Smoothed Bigram Perplexity: 423.34164421865404
Smoothed Trigram Probability: -229.76117017450386
Smoothed Trigram Perplexity: 1965.946169200586


49. E-Mail

Smoothed Bigram Probability: -532.0629443401795
Smoothed Bigram Perplexity: 467.1414779808122
Smoothed Trigram Probability: -744.678436118679
Smoothed Trigram Perplexity: 2810.4614774199263


50. E-Mail

Smoothed Bigram Probability: -16200.819459444145
Smoothed Bigram Perplexity: 681.9906042073144
Smoothed Trigram Probability: -21564.038878765128
Smoothed Trigram Perplexity: 4311.367846343342


51. E-Mail

Smoothed Bigram Probability: -1438.8030193507916
Smoothed Bigram Perplexity: 1018.1169909004886
Smoothed Trigram Probability: -1937.752270966721
Smoothed Trigram Perplexity: 6494.701580334964


52. E-Mail

Smoothed Bigram Probability: -145.44804317509752
Smoothed Bigram Perplexity: 376.3072424189684
Smoothed Trigram Probability: -200.63142808015834
Smoothed Trigram Perplexity: 1509.1796602327781


53. E-Mail

Smoothed Bigram Probability: -638.7371063149282
Smoothed Bigram Perplexity: 468.3193047357207
Smoothed Trigram Probability: -901.3438406691729
Smoothed Trigram Perplexity: 3340.3050927938125


54. E-Mail

Smoothed Bigram Probability: -633.2487370164467
Smoothed Bigram Perplexity: 579.0394883372495
Smoothed Trigram Probability: -864.3607990554576
Smoothed Trigram Perplexity: 2652.557681847966


55. E-Mail

Smoothed Bigram Probability: -605.7371814644398
Smoothed Bigram Perplexity: 784.0902424773816
Smoothed Trigram Probability: -825.3560020067426
Smoothed Trigram Perplexity: 5108.72052277624


56. E-Mail

Smoothed Bigram Probability: -21316.308113979303
Smoothed Bigram Perplexity: 774.7662724158977
Smoothed Trigram Probability: -27798.6260891708
Smoothed Trigram Perplexity: 4510.707528225648


57. E-Mail

Smoothed Bigram Probability: -36315.860528212615
Smoothed Bigram Perplexity: 2495.6968957591375
Smoothed Trigram Probability: -45885.74156832295
Smoothed Trigram Perplexity: 14598.238268163275


58. E-Mail

Smoothed Bigram Probability: -2982.9500741663296
Smoothed Bigram Perplexity: 666.4469111152791
Smoothed Trigram Probability: -3975.1987432399537
Smoothed Trigram Perplexity: 4337.568879285907


59. E-Mail

Smoothed Bigram Probability: -6797.055999578584
Smoothed Bigram Perplexity: 658.1789550806963
Smoothed Trigram Probability: -8969.596834202915
Smoothed Trigram Perplexity: 3385.054114401789


60. E-Mail

Smoothed Bigram Probability: -2982.9500741663296
Smoothed Bigram Perplexity: 666.4469111152791
Smoothed Trigram Probability: -3975.1987432399537
Smoothed Trigram Perplexity: 4337.568879285907


61. E-Mail

Smoothed Bigram Probability: -6797.055999578584
Smoothed Bigram Perplexity: 658.1789550806963
Smoothed Trigram Probability: -8969.596834202915
Smoothed Trigram Perplexity: 3385.054114401789


62. E-Mail

Smoothed Bigram Probability: -228.0324984234066
Smoothed Bigram Perplexity: 282.87439836108456
Smoothed Trigram Probability: -320.17910597314705
Smoothed Trigram Perplexity: 1285.7177552536605


63. E-Mail

Smoothed Bigram Probability: -84.39580033781866
Smoothed Bigram Perplexity: 665.0463808864699
Smoothed Trigram Probability: -110.79041567050382
Smoothed Trigram Perplexity: 2163.3352900202935


64. E-Mail

Smoothed Bigram Probability: -633.6132833924352
Smoothed Bigram Perplexity: 1065.5286758974837
Smoothed Trigram Probability: -808.0718815924765
Smoothed Trigram Perplexity: 5525.445605011797


65. E-Mail

Smoothed Bigram Probability: -2884.5694323045127
Smoothed Bigram Perplexity: 750.4199704181365
Smoothed Trigram Probability: -3862.4207934438687
Smoothed Trigram Perplexity: 4910.4969259252075


66. E-Mail

Smoothed Bigram Probability: -515.9836934148425
Smoothed Bigram Perplexity: 593.8663695001308
Smoothed Trigram Probability: -690.6127973132075
Smoothed Trigram Perplexity: 2916.8860021826263


67. E-Mail

Smoothed Bigram Probability: -301.3529466570954
Smoothed Bigram Perplexity: 331.0522636489826
Smoothed Trigram Probability: -415.84597610553044
Smoothed Trigram Perplexity: 1621.0550125633904


68. E-Mail

Smoothed Bigram Probability: -146.67115377906293
Smoothed Bigram Perplexity: 210.77126875048984
Smoothed Trigram Probability: -211.08135940363604
Smoothed Trigram Perplexity: 1061.2091502038827


69. E-Mail

Smoothed Bigram Probability: -317.45849843395393
Smoothed Bigram Perplexity: 244.97020192630112
Smoothed Trigram Probability: -450.70183219551365
Smoothed Trigram Perplexity: 1212.0415648157802


70. E-Mail

Smoothed Bigram Probability: -690.6811512730352
Smoothed Bigram Perplexity: 1268.2943544852749
Smoothed Trigram Probability: -899.6397846322113
Smoothed Trigram Perplexity: 6521.476326156578


71. E-Mail

Smoothed Bigram Probability: -4407.027743995537
Smoothed Bigram Perplexity: 702.8831605748438
Smoothed Trigram Probability: -5781.946920515328
Smoothed Trigram Perplexity: 3813.7911462798706


72. E-Mail

Smoothed Bigram Probability: -4342.514857032421
Smoothed Bigram Perplexity: 704.6762016831626
Smoothed Trigram Probability: -5695.575398393347
Smoothed Trigram Perplexity: 3796.762569772523


73. E-Mail

Smoothed Bigram Probability: -16200.819459444145
Smoothed Bigram Perplexity: 681.9906042073144
Smoothed Trigram Probability: -21564.038878765128
Smoothed Trigram Perplexity: 4311.367846343342


74. E-Mail

Smoothed Bigram Probability: -16200.819459444145
Smoothed Bigram Perplexity: 681.9906042073144
Smoothed Trigram Probability: -21564.038878765128
Smoothed Trigram Perplexity: 4311.367846343342


75. E-Mail

Smoothed Bigram Probability: -602.3386365820846
Smoothed Bigram Perplexity: 508.50879068591684
Smoothed Trigram Probability: -829.798480302693
Smoothed Trigram Perplexity: 2946.8928579351996


76. E-Mail

Smoothed Bigram Probability: -124.4521578136613
Smoothed Bigram Perplexity: 314.476961853515
Smoothed Trigram Probability: -175.48129052359613
Smoothed Trigram Perplexity: 1280.444365109006


77. E-Mail

Smoothed Bigram Probability: -828.5514934502255
Smoothed Bigram Perplexity: 1200.1764268331463
Smoothed Trigram Probability: -1050.6744919739267
Smoothed Trigram Perplexity: 6466.318342282757


78. E-Mail

Smoothed Bigram Probability: -429.92973791018335
Smoothed Bigram Perplexity: 751.6900910400786
Smoothed Trigram Probability: -581.8114829344679
Smoothed Trigram Perplexity: 5326.483667391497


79. E-Mail

Smoothed Bigram Probability: -3525.067740993821
Smoothed Bigram Perplexity: 589.6978900344017
Smoothed Trigram Probability: -4750.49474481667
Smoothed Trigram Perplexity: 3262.9864022256834


80. E-Mail

Smoothed Bigram Probability: -273.05993563499237
Smoothed Bigram Perplexity: 261.5919939580099
Smoothed Trigram Probability: -392.8503154763562
Smoothed Trigram Perplexity: 1294.4882877317807


81. E-Mail

Smoothed Bigram Probability: -1527.1607367437273
Smoothed Bigram Perplexity: 1217.24251819509
Smoothed Trigram Probability: -1938.3235277475742
Smoothed Trigram Perplexity: 6898.794026359654


82. E-Mail

Smoothed Bigram Probability: -759.5236173112642
Smoothed Bigram Perplexity: 1019.5605958756803
Smoothed Trigram Probability: -962.5897304821676
Smoothed Trigram Perplexity: 5187.752656399069


83. E-Mail

Smoothed Bigram Probability: -185.18322015100307
Smoothed Bigram Perplexity: 265.293286015294
Smoothed Trigram Probability: -256.9725901330241
Smoothed Trigram Perplexity: 944.6009387105087


84. E-Mail

Smoothed Bigram Probability: -478.76823027166176
Smoothed Bigram Perplexity: 466.6115920153389
Smoothed Trigram Probability: -653.9127071370476
Smoothed Trigram Perplexity: 2840.940215954679


85. E-Mail

Smoothed Bigram Probability: -552.654313070394
Smoothed Bigram Perplexity: 829.2651782200979
Smoothed Trigram Probability: -705.9107226779557
Smoothed Trigram Perplexity: 3045.1697341523677


86. E-Mail

Smoothed Bigram Probability: -4525.703120145374
Smoothed Bigram Perplexity: 572.5835244301943
Smoothed Trigram Probability: -6114.69532861938
Smoothed Trigram Perplexity: 2799.0864223688814


87. E-Mail

Smoothed Bigram Probability: -8259.53056481209
Smoothed Bigram Perplexity: 532.4502095794854
Smoothed Trigram Probability: -11014.173821020535
Smoothed Trigram Perplexity: 3091.01979942172


88. E-Mail

Smoothed Bigram Probability: -1400.663116253485
Smoothed Bigram Perplexity: 569.9378873126914
Smoothed Trigram Probability: -1885.3615432423258
Smoothed Trigram Perplexity: 3187.1124735548465


89. E-Mail

Smoothed Bigram Probability: -91.66409804709146
Smoothed Bigram Perplexity: 132.61355760626444
Smoothed Trigram Probability: -131.25757921204473
Smoothed Trigram Perplexity: 430.68978038698606


90. E-Mail

Smoothed Bigram Probability: -563.0416941467329
Smoothed Bigram Perplexity: 444.9583442264181
Smoothed Trigram Probability: -773.9424943491451
Smoothed Trigram Perplexity: 2667.93401471105


91. E-Mail

Smoothed Bigram Probability: -409.87479551244354
Smoothed Bigram Perplexity: 329.65010831108805
Smoothed Trigram Probability: -589.3917791929555
Smoothed Trigram Perplexity: 2582.3293391962507


92. E-Mail

Smoothed Bigram Probability: -988.9205104275372
Smoothed Bigram Perplexity: 480.76690851176033
Smoothed Trigram Probability: -1335.9381422789625
Smoothed Trigram Perplexity: 2395.931494993294


93. E-Mail

Smoothed Bigram Probability: -1467.1855015880096
Smoothed Bigram Perplexity: 396.3147770221442
Smoothed Trigram Probability: -1987.7115918282357
Smoothed Trigram Perplexity: 1465.3123890347908


94. E-Mail

Smoothed Bigram Probability: -407.8351996125094
Smoothed Bigram Perplexity: 466.5806284228125
Smoothed Trigram Probability: -559.9935676875992
Smoothed Trigram Perplexity: 2352.324463064646


95. E-Mail

Smoothed Bigram Probability: -139.07296043460937
Smoothed Bigram Perplexity: 618.028987166766
Smoothed Trigram Probability: -174.75862408991696
Smoothed Trigram Perplexity: 1940.770761513261


96. E-Mail

Smoothed Bigram Probability: -8259.53056481209
Smoothed Bigram Perplexity: 532.4502095794854
Smoothed Trigram Probability: -11014.173821020535
Smoothed Trigram Perplexity: 3091.01979942172


97. E-Mail

Smoothed Bigram Probability: -850.0038710006976
Smoothed Bigram Perplexity: 322.5482734937385
Smoothed Trigram Probability: -1194.2378140069936
Smoothed Trigram Perplexity: 1854.3622669282252


98. E-Mail

Smoothed Bigram Probability: -837.4228838841516
Smoothed Bigram Perplexity: 1294.8364086007853
Smoothed Trigram Probability: -1074.2491625526304
Smoothed Trigram Perplexity: 7075.814476345497


99. E-Mail

Smoothed Bigram Probability: -293.3436958712474
Smoothed Bigram Perplexity: 574.8295812917936
Smoothed Trigram Probability: -389.00778783464585
Smoothed Trigram Perplexity: 2217.176988076087


100. E-Mail

Smoothed Bigram Probability: -973.5248408460112
Smoothed Bigram Perplexity: 548.125710938832
Smoothed Trigram Probability: -1321.8445676234169
Smoothed Trigram Perplexity: 3093.7218683474243


101. E-Mail

Smoothed Bigram Probability: -1055.7538333607845
Smoothed Bigram Perplexity: 2847.7072866586936
Smoothed Trigram Probability: -1314.4671871879152
Smoothed Trigram Perplexity: 16199.85725848927


102. E-Mail

Smoothed Bigram Probability: -2660.2545866035994
Smoothed Bigram Perplexity: 741.8391907425752
Smoothed Trigram Probability: -3576.8875821807374
Smoothed Trigram Perplexity: 5013.873577485622


103. E-Mail

Smoothed Bigram Probability: -8259.53056481209
Smoothed Bigram Perplexity: 532.4502095794854
Smoothed Trigram Probability: -11014.173821020535
Smoothed Trigram Perplexity: 3091.01979942172


104. E-Mail

Smoothed Bigram Probability: -509.90706764351853
Smoothed Bigram Perplexity: 695.8938632812442
Smoothed Trigram Probability: -661.2867154682631
Smoothed Trigram Perplexity: 3107.462624939478


105. E-Mail

Smoothed Bigram Probability: -3164.699677848671
Smoothed Bigram Perplexity: 1081.3826462802085
Smoothed Trigram Probability: -4123.878026166037
Smoothed Trigram Perplexity: 6972.325607890478


106. E-Mail

Smoothed Bigram Probability: -1416.9655555654667
Smoothed Bigram Perplexity: 481.61384436834993
Smoothed Trigram Probability: -1939.592175130346
Smoothed Trigram Perplexity: 2597.0252021605434


107. E-Mail

Smoothed Bigram Probability: -155.42212327075495
Smoothed Bigram Perplexity: 839.7887808593537
Smoothed Trigram Probability: -202.32772356819626
Smoothed Trigram Perplexity: 3826.0255646080673


108. E-Mail

Smoothed Bigram Probability: -21.94042436757521
Smoothed Bigram Perplexity: 159.06523963332495
Smoothed Trigram Probability: -26.258858802422107
Smoothed Trigram Perplexity: 94.66207889151167


109. E-Mail

Smoothed Bigram Probability: -21.94042436757521
Smoothed Bigram Perplexity: 159.06523963332495
Smoothed Trigram Probability: -26.258858802422107
Smoothed Trigram Perplexity: 94.66207889151167


110. E-Mail

Smoothed Bigram Probability: -1441.2511171269543
Smoothed Bigram Perplexity: 936.7907329252586
Smoothed Trigram Probability: -1884.91921198201
Smoothed Trigram Perplexity: 5407.643349704147


111. E-Mail

Smoothed Bigram Probability: -11030.619141480927
Smoothed Bigram Perplexity: 1149.243869390837
Smoothed Trigram Probability: -14297.649591245246
Smoothed Trigram Perplexity: 6748.39552679171


112. E-Mail

Smoothed Bigram Probability: -245.0225613620374
Smoothed Bigram Perplexity: 1183.852305756121
Smoothed Trigram Probability: -310.6086066021543
Smoothed Trigram Perplexity: 5496.678045173782


113. E-Mail

Smoothed Bigram Probability: -165.0740632394542
Smoothed Bigram Perplexity: 576.3419774929474
Smoothed Trigram Probability: -227.45142651645008
Smoothed Trigram Perplexity: 4014.842594583408


114. E-Mail

Smoothed Bigram Probability: -49.98800745497012
Smoothed Bigram Perplexity: 322.09324086679413
Smoothed Trigram Probability: -69.0245210486288
Smoothed Trigram Perplexity: 929.7157359863402


115. E-Mail

Smoothed Bigram Probability: -3791.603458423512
Smoothed Bigram Perplexity: 679.5544327778703
Smoothed Trigram Probability: -4992.742338095652
Smoothed Trigram Perplexity: 3863.9289092233867


116. E-Mail

Smoothed Bigram Probability: -3435.9865982438105
Smoothed Bigram Perplexity: 1968.1609353565138
Smoothed Trigram Probability: -4391.460385925878
Smoothed Trigram Perplexity: 11352.617750283516


117. E-Mail

Smoothed Bigram Probability: -252.64682401553813
Smoothed Bigram Perplexity: 284.0296141395955
Smoothed Trigram Probability: -347.3397793379943
Smoothed Trigram Perplexity: 1189.2826049187556


118. E-Mail

Smoothed Bigram Probability: -120.82324103363861
Smoothed Bigram Perplexity: 1073.8698362023842
Smoothed Trigram Probability: -149.4980206818667
Smoothed Trigram Perplexity: 2896.0037290157284


119. E-Mail

Smoothed Bigram Probability: -346.86045835530217
Smoothed Bigram Perplexity: 559.4660585517436
Smoothed Trigram Probability: -476.43042486426896
Smoothed Trigram Perplexity: 3148.075148771757


120. E-Mail

Smoothed Bigram Probability: -254.41621431133333
Smoothed Bigram Perplexity: 295.4918757338642
Smoothed Trigram Probability: -357.4235711378403
Smoothed Trigram Perplexity: 1460.713955625874


121. E-Mail

Smoothed Bigram Probability: -2529.1204167166684
Smoothed Bigram Perplexity: 629.5760398513253
Smoothed Trigram Probability: -3333.597529025379
Smoothed Trigram Perplexity: 3415.8276499662334


122. E-Mail

Smoothed Bigram Probability: -224.89501568357073
Smoothed Bigram Perplexity: 1194.756344083399
Smoothed Trigram Probability: -271.19175560872424
Smoothed Trigram Perplexity: 3543.466994998182


123. E-Mail

Smoothed Bigram Probability: -252.64682401553813
Smoothed Bigram Perplexity: 284.0296141395955
Smoothed Trigram Probability: -347.3397793379943
Smoothed Trigram Perplexity: 1189.2826049187556


124. E-Mail

Smoothed Bigram Probability: -166.85757652963167
Smoothed Bigram Perplexity: 324.68092677960334
Smoothed Trigram Probability: -233.32623115408626
Smoothed Trigram Perplexity: 1131.9690093935114


125. E-Mail

Smoothed Bigram Probability: -483.9469063413466
Smoothed Bigram Perplexity: 324.9135676370671
Smoothed Trigram Probability: -670.060400030542
Smoothed Trigram Perplexity: 1268.248324291597


126. E-Mail

Smoothed Bigram Probability: -91.59265425400629
Smoothed Bigram Perplexity: 571.7598185833888
Smoothed Trigram Probability: -121.83894906419305
Smoothed Trigram Perplexity: 2159.180439206912


127. E-Mail

Smoothed Bigram Probability: -2525.844721711032
Smoothed Bigram Perplexity: 1472.807340733897
Smoothed Trigram Probability: -3281.2432462731076
Smoothed Trigram Perplexity: 9265.696551186636


128. E-Mail

Smoothed Bigram Probability: -252.64682401553813
Smoothed Bigram Perplexity: 284.0296141395955
Smoothed Trigram Probability: -347.3397793379943
Smoothed Trigram Perplexity: 1189.2826049187556


129. E-Mail

Smoothed Bigram Probability: -342.1493398645282
Smoothed Bigram Perplexity: 437.47598001845415
Smoothed Trigram Probability: -462.262675287656
Smoothed Trigram Perplexity: 2056.897480122902


130. E-Mail

Smoothed Bigram Probability: -129.2361737325145
Smoothed Bigram Perplexity: 270.0833433836564
Smoothed Trigram Probability: -177.5816030371478
Smoothed Trigram Perplexity: 932.9426662817694


131. E-Mail

Smoothed Bigram Probability: -131.56600118763046
Smoothed Bigram Perplexity: 1113.1726323383864
Smoothed Trigram Probability: -163.3095737662057
Smoothed Trigram Perplexity: 3247.175297517769


132. E-Mail

Smoothed Bigram Probability: -2026.9651111486457
Smoothed Bigram Perplexity: 710.0612096099456
Smoothed Trigram Probability: -2689.2930458502947
Smoothed Trigram Perplexity: 3820.4497024815805


133. E-Mail

Smoothed Bigram Probability: -2072.2824600896147
Smoothed Bigram Perplexity: 609.4064597487344
Smoothed Trigram Probability: -2756.6381909810843
Smoothed Trigram Perplexity: 2965.4822235158754


134. E-Mail

Smoothed Bigram Probability: -362.1908081347908
Smoothed Bigram Perplexity: 531.8111457274632
Smoothed Trigram Probability: -491.7956899558211
Smoothed Trigram Perplexity: 2772.7639144399504


135. E-Mail

Smoothed Bigram Probability: -270.13641890302347
Smoothed Bigram Perplexity: 347.71538476961945
Smoothed Trigram Probability: -369.379928253767
Smoothed Trigram Perplexity: 1503.0864113787288


136. E-Mail

Smoothed Bigram Probability: -1036.2592079479869
Smoothed Bigram Perplexity: 609.8515762793363
Smoothed Trigram Probability: -1385.176676629844
Smoothed Trigram Perplexity: 3191.7681435146587


137. E-Mail

Smoothed Bigram Probability: -140.039985703413
Smoothed Bigram Perplexity: 301.84126009270847
Smoothed Trigram Probability: -189.94016918017232
Smoothed Trigram Perplexity: 1021.7673384848646


138. E-Mail

Smoothed Bigram Probability: -4550.938366516182
Smoothed Bigram Perplexity: 3395.0629142691723
Smoothed Trigram Probability: -5583.271273531349
Smoothed Trigram Perplexity: 17549.835443265663


139. E-Mail

Smoothed Bigram Probability: -1642.063791697993
Smoothed Bigram Perplexity: 454.55150212262043
Smoothed Trigram Probability: -2242.70587962344
Smoothed Trigram Perplexity: 2039.0144338623263


140. E-Mail

Smoothed Bigram Probability: -190.8478284471107
Smoothed Bigram Perplexity: 314.67781731182583
Smoothed Trigram Probability: -271.12331970833145
Smoothed Trigram Perplexity: 1839.2894096327138


141. E-Mail

Smoothed Bigram Probability: -46.27309757650649
Smoothed Bigram Perplexity: 209.69998229724777
Smoothed Trigram Probability: -63.65117145968817
Smoothed Trigram Perplexity: 546.1011914755516


142. E-Mail

Smoothed Bigram Probability: -514.9683546441424
Smoothed Bigram Perplexity: 288.8348206384084
Smoothed Trigram Probability: -730.9610035021017
Smoothed Trigram Perplexity: 1545.2641193392146


143. E-Mail

Smoothed Bigram Probability: -253.76455944202885
Smoothed Bigram Perplexity: 534.8609178940553
Smoothed Trigram Probability: -339.4817905002802
Smoothed Trigram Perplexity: 2549.607907479165


144. E-Mail

Smoothed Bigram Probability: -822.1674961070272
Smoothed Bigram Perplexity: 524.5031581998464
Smoothed Trigram Probability: -1141.6431456167675
Smoothed Trigram Perplexity: 3800.875620917523


145. E-Mail

Smoothed Bigram Probability: -1921.7579927219583
Smoothed Bigram Perplexity: 1030.5195877922595
Smoothed Trigram Probability: -2492.775374027458
Smoothed Trigram Perplexity: 5649.380156917393


146. E-Mail

Smoothed Bigram Probability: -1492.4102884881634
Smoothed Bigram Perplexity: 1458.1582746902623
Smoothed Trigram Probability: -1899.652210157672
Smoothed Trigram Perplexity: 9358.290104439175


147. E-Mail

Smoothed Bigram Probability: -1237.9050904984654
Smoothed Bigram Perplexity: 1984.9848834412937
Smoothed Trigram Probability: -1506.6318173546574
Smoothed Trigram Perplexity: 8786.946763110529


148. E-Mail

Smoothed Bigram Probability: -1078.4008894576077
Smoothed Bigram Perplexity: 1154.9328812778435
Smoothed Trigram Probability: -1398.580970050003
Smoothed Trigram Perplexity: 7911.984019115157


149. E-Mail

Smoothed Bigram Probability: -1380.5963568359048
Smoothed Bigram Perplexity: 1573.7296156572925
Smoothed Trigram Probability: -1793.0365278638944
Smoothed Trigram Perplexity: 10667.020284676059


150. E-Mail

Smoothed Bigram Probability: -737.0609109087941
Smoothed Bigram Perplexity: 548.5644873496162
Smoothed Trigram Probability: -991.1858060882678
Smoothed Trigram Perplexity: 2947.786555954325


151. E-Mail

Smoothed Bigram Probability: -217.95127862736945
Smoothed Bigram Perplexity: 333.7771738427805
Smoothed Trigram Probability: -307.83540445532003
Smoothed Trigram Perplexity: 2039.6721869220794


152. E-Mail

Smoothed Bigram Probability: -942.4620927795696
Smoothed Bigram Perplexity: 734.0930427094248
Smoothed Trigram Probability: -1248.8730159464435
Smoothed Trigram Perplexity: 4466.660034398875


153. E-Mail

Smoothed Bigram Probability: -215.29561368353103
Smoothed Bigram Perplexity: 657.4233353522127
Smoothed Trigram Probability: -294.6961738915944
Smoothed Trigram Perplexity: 4969.921142585262


154. E-Mail

Smoothed Bigram Probability: -348.96985187702046
Smoothed Bigram Perplexity: 422.92155946122364
Smoothed Trigram Probability: -465.4329147754612
Smoothed Trigram Perplexity: 1528.6270930360809


155. E-Mail

Smoothed Bigram Probability: -125.43563505395787
Smoothed Bigram Perplexity: 802.7989970816533
Smoothed Trigram Probability: -162.1587779353154
Smoothed Trigram Perplexity: 3067.3346348136356


156. E-Mail

Smoothed Bigram Probability: -282.7326714096797
Smoothed Bigram Perplexity: 1877.1568868336046
Smoothed Trigram Probability: -343.95384197187605
Smoothed Trigram Perplexity: 6836.447800822678


157. E-Mail

Smoothed Bigram Probability: -121.12570723106616
Smoothed Bigram Perplexity: 637.977659449975
Smoothed Trigram Probability: -156.06429555179406
Smoothed Trigram Perplexity: 2268.384805309893


158. E-Mail

Smoothed Bigram Probability: -229.16624994232197
Smoothed Bigram Perplexity: 4274.030760609093
Smoothed Trigram Probability: -268.5931833451694
Smoothed Trigram Perplexity: 11033.930417982154


159. E-Mail

Smoothed Bigram Probability: -1701.9521772513444
Smoothed Bigram Perplexity: 784.4561660017906
Smoothed Trigram Probability: -2295.385991381413
Smoothed Trigram Perplexity: 5968.252463418935


160. E-Mail

Smoothed Bigram Probability: -17653.439785752358
Smoothed Bigram Perplexity: 2253.2893963125903
Smoothed Trigram Probability: -22336.885297404657
Smoothed Trigram Perplexity: 12518.3097730298


161. E-Mail

Smoothed Bigram Probability: -284.3774494654815
Smoothed Bigram Perplexity: 279.18352234746425
Smoothed Trigram Probability: -409.79888832403736
Smoothed Trigram Perplexity: 1763.4454971234295


162. E-Mail

Smoothed Bigram Probability: -1555.2248146845
Smoothed Bigram Perplexity: 457.14392218956186
Smoothed Trigram Probability: -2144.519624377965
Smoothed Trigram Perplexity: 2604.272465179429


163. E-Mail

Smoothed Bigram Probability: -188.1912374836941
Smoothed Bigram Perplexity: 375.8849020296831
Smoothed Trigram Probability: -262.78788453118204
Smoothed Trigram Perplexity: 1977.5455206539223


164. E-Mail

Smoothed Bigram Probability: -285.3524004246337
Smoothed Bigram Perplexity: 483.463281741438
Smoothed Trigram Probability: -373.07631873988765
Smoothed Trigram Perplexity: 1617.2459590006465


165. E-Mail

Smoothed Bigram Probability: -1190.9869566110092
Smoothed Bigram Perplexity: 1092.2669675363936
Smoothed Trigram Probability: -1508.407993338807
Smoothed Trigram Perplexity: 5658.412990230288


166. E-Mail

Smoothed Bigram Probability: -206.4353229494425
Smoothed Bigram Perplexity: 245.54099665660598
Smoothed Trigram Probability: -289.7791855391769
Smoothed Trigram Perplexity: 1018.6097442683078


167. E-Mail

Smoothed Bigram Probability: -1010.3412708082626
Smoothed Bigram Perplexity: 958.9465384247626
Smoothed Trigram Probability: -1290.7873038233952
Smoothed Trigram Perplexity: 5019.098059502722


168. E-Mail

Smoothed Bigram Probability: -157.5048765168175
Smoothed Bigram Perplexity: 234.7927133650345
Smoothed Trigram Probability: -230.7441532915392
Smoothed Trigram Perplexity: 1436.528205268576


169. E-Mail

Smoothed Bigram Probability: -44.91098854315804
Smoothed Bigram Perplexity: 505.72094090623733
Smoothed Trigram Probability: -53.51790348322396
Smoothed Trigram Perplexity: 484.2642125548963


170. E-Mail

Smoothed Bigram Probability: -247.42576903406888
Smoothed Bigram Perplexity: 457.1851103824841
Smoothed Trigram Probability: -335.87725104092453
Smoothed Trigram Perplexity: 2345.8716536037773


171. E-Mail

Smoothed Bigram Probability: -467.88253505335365
Smoothed Bigram Perplexity: 656.0448792595719
Smoothed Trigram Probability: -624.7994612032821
Smoothed Trigram Perplexity: 3537.879215294675


172. E-Mail

Smoothed Bigram Probability: -208.7964480171791
Smoothed Bigram Perplexity: 326.70798842052955
Smoothed Trigram Probability: -278.97127321093495
Smoothed Trigram Perplexity: 998.2516612663759


173. E-Mail

Smoothed Bigram Probability: -542.5024430188525
Smoothed Bigram Perplexity: 931.6735863456878
Smoothed Trigram Probability: -704.7404992059082
Smoothed Trigram Perplexity: 4546.996764507494


174. E-Mail

Smoothed Bigram Probability: -8975.211875273084
Smoothed Bigram Perplexity: 2293.2832624756556
Smoothed Trigram Probability: -11376.43313798796
Smoothed Trigram Perplexity: 13368.462671211184


175. E-Mail

Smoothed Bigram Probability: -1201.7543042458815
Smoothed Bigram Perplexity: 1398.8615134858298
Smoothed Trigram Probability: -1568.033456787932
Smoothed Trigram Perplexity: 7962.21541551022


176. E-Mail

Smoothed Bigram Probability: -242.38019233039122
Smoothed Bigram Perplexity: 828.9881639211206
Smoothed Trigram Probability: -327.9798064879052
Smoothed Trigram Perplexity: 6271.5570037569705


177. E-Mail

Smoothed Bigram Probability: -159.37452121760361
Smoothed Bigram Perplexity: 192.57317129863299
Smoothed Trigram Probability: -226.21048259785857
Smoothed Trigram Perplexity: 913.4857249659836


178. E-Mail

Smoothed Bigram Probability: -288.7384463036421
Smoothed Bigram Perplexity: 1656.6079820209154
Smoothed Trigram Probability: -369.6506584790205
Smoothed Trigram Perplexity: 9421.945237335036


179. E-Mail

Smoothed Bigram Probability: -148.89663642818954
Smoothed Bigram Perplexity: 973.0987646593958
Smoothed Trigram Probability: -200.11062246205228
Smoothed Trigram Perplexity: 5820.445650117959


180. E-Mail

Smoothed Bigram Probability: -54.35310787104539
Smoothed Bigram Perplexity: 533.3176676191569
Smoothed Trigram Probability: -65.85520016614139
Smoothed Trigram Perplexity: 679.2909097643869


181. E-Mail

Smoothed Bigram Probability: -70.65059540928242
Smoothed Bigram Perplexity: 455.5054249932028
Smoothed Trigram Probability: -87.78041282692053
Smoothed Trigram Perplexity: 863.0971830703644


182. E-Mail

Smoothed Bigram Probability: -1228.7031173826012
Smoothed Bigram Perplexity: 1016.5435012760217
Smoothed Trigram Probability: -1597.7057328685103
Smoothed Trigram Perplexity: 5721.0967945920265


183. E-Mail

Smoothed Bigram Probability: -869.808770005945
Smoothed Bigram Perplexity: 653.8348532983243
Smoothed Trigram Probability: -1170.0668816404684
Smoothed Trigram Perplexity: 3927.669920267939


184. E-Mail

Smoothed Bigram Probability: -199.08958166684806
Smoothed Bigram Perplexity: 249.61888344202302
Smoothed Trigram Probability: -284.1740112935805
Smoothed Trigram Perplexity: 1135.468392713748


185. E-Mail

Smoothed Bigram Probability: -122.17282617931583
Smoothed Bigram Perplexity: 423.6210417951541
Smoothed Trigram Probability: -170.07832213938
Smoothed Trigram Perplexity: 2589.6740508600988


186. E-Mail

Smoothed Bigram Probability: -352.817008621386
Smoothed Bigram Perplexity: 1082.7511284176376
Smoothed Trigram Probability: -454.1033766337823
Smoothed Trigram Perplexity: 4949.490248577248


187. E-Mail

Smoothed Bigram Probability: -343.1059702488592
Smoothed Bigram Perplexity: 1348.5101017799886
Smoothed Trigram Probability: -431.5912634082289
Smoothed Trigram Perplexity: 5152.935984565367


188. E-Mail

Smoothed Bigram Probability: -77.30475107602817
Smoothed Bigram Perplexity: 385.1874226943814
Smoothed Trigram Probability: -107.62118770774924
Smoothed Trigram Perplexity: 1736.6830552064157


189. E-Mail

Smoothed Bigram Probability: -33.9668784087952
Smoothed Bigram Perplexity: 359.96669035215547
Smoothed Trigram Probability: -40.44382709649619
Smoothed Trigram Perplexity: 272.24569379726745


190. E-Mail

Smoothed Bigram Probability: -542.2427059261236
Smoothed Bigram Perplexity: 1053.9068113998424
Smoothed Trigram Probability: -715.9272822481114
Smoothed Trigram Perplexity: 7054.928540286482


191. E-Mail

Smoothed Bigram Probability: -586.5077126319384
Smoothed Bigram Perplexity: 704.1806707793404
Smoothed Trigram Probability: -774.9584314600775
Smoothed Trigram Perplexity: 3881.6044846824734


192. E-Mail

Smoothed Bigram Probability: -423.12089591159935
Smoothed Bigram Perplexity: 352.7293753138337
Smoothed Trigram Probability: -595.2167596293002
Smoothed Trigram Perplexity: 2080.2375739691092


193. E-Mail

Smoothed Bigram Probability: -883.820773521212
Smoothed Bigram Perplexity: 1143.1979076959333
Smoothed Trigram Probability: -1139.405994293575
Smoothed Trigram Perplexity: 5877.329195872988


194. E-Mail

Smoothed Bigram Probability: -240.15431943953604
Smoothed Bigram Perplexity: 311.0889690787777
Smoothed Trigram Probability: -341.58183241124175
Smoothed Trigram Perplexity: 1634.2718412118925


195. E-Mail

Smoothed Bigram Probability: -1423.091459429671
Smoothed Bigram Perplexity: 367.47587907657214
Smoothed Trigram Probability: -1989.5149235028368
Smoothed Trigram Perplexity: 2124.4308744746804


196. E-Mail

Smoothed Bigram Probability: -159.76705276838942
Smoothed Bigram Perplexity: 253.9415464986517
Smoothed Trigram Probability: -225.99832667629371
Smoothed Trigram Perplexity: 907.6637958718386


197. E-Mail

Smoothed Bigram Probability: -344.33168234416485
Smoothed Bigram Perplexity: 226.86968795669256
Smoothed Trigram Probability: -486.3419968450575
Smoothed Trigram Perplexity: 972.3600931535678


198. E-Mail

Smoothed Bigram Probability: -501.8393504606744
Smoothed Bigram Perplexity: 627.4346113013231
Smoothed Trigram Probability: -664.0898849682148
Smoothed Trigram Perplexity: 3215.2155314504357


199. E-Mail

Smoothed Bigram Probability: -295.330401298934
Smoothed Bigram Perplexity: 252.8087763428134
Smoothed Trigram Probability: -413.48810025860377
Smoothed Trigram Perplexity: 1086.201176797894


200. E-Mail

Smoothed Bigram Probability: -136.66294343266006
Smoothed Bigram Perplexity: 552.8954524977838
Smoothed Trigram Probability: -184.86631526758805
Smoothed Trigram Perplexity: 3007.0741009891026


201. E-Mail

Smoothed Bigram Probability: -81.11540338701948
Smoothed Bigram Perplexity: 276.5775676923302
Smoothed Trigram Probability: -113.81725098871713
Smoothed Trigram Perplexity: 1302.4595179830426


202. E-Mail

Smoothed Bigram Probability: -21.941254337418837
Smoothed Bigram Perplexity: 159.0957455054127
Smoothed Trigram Probability: -26.258858802422107
Smoothed Trigram Perplexity: 94.66207889151167


203. E-Mail

Smoothed Bigram Probability: -634.9462910109883
Smoothed Bigram Perplexity: 492.1333608140039
Smoothed Trigram Probability: -865.9675462250527
Smoothed Trigram Perplexity: 2691.7147560651406


204. E-Mail

Smoothed Bigram Probability: -41.45935217476869
Smoothed Bigram Perplexity: 313.4019692972804
Smoothed Trigram Probability: -52.68875766112051
Smoothed Trigram Perplexity: 440.0304680142955


205. E-Mail

Smoothed Bigram Probability: -584.6125495037717
Smoothed Bigram Perplexity: 562.0563961513533
Smoothed Trigram Probability: -784.4636448752454
Smoothed Trigram Perplexity: 2969.9647067770757


206. E-Mail

Smoothed Bigram Probability: -178.6453918134211
Smoothed Bigram Perplexity: 488.518568869122
Smoothed Trigram Probability: -238.5062037015736
Smoothed Trigram Perplexity: 1834.5252894492808


207. E-Mail

Smoothed Bigram Probability: -394.4458541427732
Smoothed Bigram Perplexity: 435.1784860159662
Smoothed Trigram Probability: -531.2563376316583
Smoothed Trigram Perplexity: 1835.5110370100113


208. E-Mail

Smoothed Bigram Probability: -463.88319551141075
Smoothed Bigram Perplexity: 345.9068847426257
Smoothed Trigram Probability: -651.9042736463281
Smoothed Trigram Perplexity: 1865.1439011263014


209. E-Mail

Smoothed Bigram Probability: -583.8981388053411
Smoothed Bigram Perplexity: 324.34873073283666
Smoothed Trigram Probability: -814.6611278512884
Smoothed Trigram Perplexity: 1685.808990375157


210. E-Mail

Smoothed Bigram Probability: -69.14536969615125
Smoothed Bigram Perplexity: 205.4749704424518
Smoothed Trigram Probability: -102.48107917052164
Smoothed Trigram Perplexity: 1216.1520657506485


211. E-Mail

Smoothed Bigram Probability: -1028.8963969553624
Smoothed Bigram Perplexity: 2763.310928513539
Smoothed Trigram Probability: -1282.6242020338148
Smoothed Trigram Perplexity: 15733.667863534287


212. E-Mail

Smoothed Bigram Probability: -77.80544535515003
Smoothed Bigram Perplexity: 400.330988250978
Smoothed Trigram Probability: -107.17663515543586
Smoothed Trigram Perplexity: 1683.9849336342327


213. E-Mail

Smoothed Bigram Probability: -609.7849390188003
Smoothed Bigram Perplexity: 384.9481342027906
Smoothed Trigram Probability: -845.425098860168
Smoothed Trigram Perplexity: 2019.1701023944433


214. E-Mail

Smoothed Bigram Probability: -76.06380075162197
Smoothed Bigram Perplexity: 350.0782004190918
Smoothed Trigram Probability: -104.68858456921544
Smoothed Trigram Perplexity: 1417.2302576917937


215. E-Mail

Smoothed Bigram Probability: -868.2567816857222
Smoothed Bigram Perplexity: 693.4142688749222
Smoothed Trigram Probability: -1157.4102723475532
Smoothed Trigram Perplexity: 3591.3459103781297


216. E-Mail

Smoothed Bigram Probability: -831.4447605182406
Smoothed Bigram Perplexity: 318.34506847278897
Smoothed Trigram Probability: -1175.764097584219
Smoothed Trigram Perplexity: 1893.3226948463644


217. E-Mail

Smoothed Bigram Probability: -101.81509586706011
Smoothed Bigram Perplexity: 154.61182439871652
Smoothed Trigram Probability: -149.77479485870336
Smoothed Trigram Perplexity: 657.5353641949869


218. E-Mail

Smoothed Bigram Probability: -2993.0637508879545
Smoothed Bigram Perplexity: 789.0643768599126
Smoothed Trigram Probability: -3983.015038385337
Smoothed Trigram Perplexity: 4889.363283444828


219. E-Mail

Smoothed Bigram Probability: -131.02581631829463
Smoothed Bigram Perplexity: 1081.5682174710994
Smoothed Trigram Probability: -161.27889713417275
Smoothed Trigram Perplexity: 2936.5799961514685


220. E-Mail

Smoothed Bigram Probability: -1083.5954791835738
Smoothed Bigram Perplexity: 427.1719834735289
Smoothed Trigram Probability: -1477.310282662597
Smoothed Trigram Perplexity: 2083.3703422976478


221. E-Mail

Smoothed Bigram Probability: -161.44567581556512
Smoothed Bigram Perplexity: 722.4753022008737
Smoothed Trigram Probability: -217.9413422264913
Smoothed Trigram Perplexity: 4413.9431894985255


222. E-Mail

Smoothed Bigram Probability: -20.36806731802762
Smoothed Bigram Perplexity: 110.61136169872562
Smoothed Trigram Probability: -24.674546792229602
Smoothed Trigram Perplexity: 71.93573386073818


223. E-Mail

Smoothed Bigram Probability: -1770.653260737036
Smoothed Bigram Perplexity: 880.7658366701122
Smoothed Trigram Probability: -2306.6565447402354
Smoothed Trigram Perplexity: 4719.87187884469


224. E-Mail

Smoothed Bigram Probability: -896.4246096714842
Smoothed Bigram Perplexity: 1495.2509081402247
Smoothed Trigram Probability: -1174.5928516444446
Smoothed Trigram Perplexity: 9394.967726518178


225. E-Mail

Smoothed Bigram Probability: -721.5221644515697
Smoothed Bigram Perplexity: 720.9286583737107
Smoothed Trigram Probability: -964.6905357854614
Smoothed Trigram Perplexity: 3847.6442540196786


226. E-Mail

Smoothed Bigram Probability: -1180.8657451416007
Smoothed Bigram Perplexity: 542.5388559125498
Smoothed Trigram Probability: -1614.3420273333886
Smoothed Trigram Perplexity: 3322.6776767503493


227. E-Mail

Smoothed Bigram Probability: -922.5831591508762
Smoothed Bigram Perplexity: 334.7916250822383
Smoothed Trigram Probability: -1286.679788088036
Smoothed Trigram Perplexity: 1798.3214296576298


228. E-Mail

Smoothed Bigram Probability: -100.21075838582566
Smoothed Bigram Perplexity: 552.5912639416301
Smoothed Trigram Probability: -124.43673424395561
Smoothed Trigram Perplexity: 1323.119685085412


229. E-Mail

Smoothed Bigram Probability: -3480.2559666789643
Smoothed Bigram Perplexity: 813.1499931235674
Smoothed Trigram Probability: -4633.747518239685
Smoothed Trigram Perplexity: 5011.780361642934


230. E-Mail

Smoothed Bigram Probability: -120.78583833108446
Smoothed Bigram Perplexity: 395.5071266875458
Smoothed Trigram Probability: -159.29160036315068
Smoothed Trigram Perplexity: 993.0517027521848


231. E-Mail

Smoothed Bigram Probability: -259.3565387781934
Smoothed Bigram Perplexity: 779.171842559119
Smoothed Trigram Probability: -327.9492525967092
Smoothed Trigram Perplexity: 3355.87510059938


232. E-Mail

Smoothed Bigram Probability: -259.3565387781934
Smoothed Bigram Perplexity: 779.171842559119
Smoothed Trigram Probability: -327.9492525967092
Smoothed Trigram Perplexity: 3355.87510059938


233. E-Mail

Smoothed Bigram Probability: -259.3565387781934
Smoothed Bigram Perplexity: 779.171842559119
Smoothed Trigram Probability: -327.9492525967092
Smoothed Trigram Perplexity: 3355.87510059938


234. E-Mail

Smoothed Bigram Probability: -210.14947537608526
Smoothed Bigram Perplexity: 750.7812865231982
Smoothed Trigram Probability: -264.6536723318578
Smoothed Trigram Perplexity: 2087.0310471220814


235. E-Mail

Smoothed Bigram Probability: -1049.613912508778
Smoothed Bigram Perplexity: 2965.8271806622397
Smoothed Trigram Probability: -1301.1291470513297
Smoothed Trigram Perplexity: 16278.00176913968


236. E-Mail

Smoothed Bigram Probability: -740.7706008081346
Smoothed Bigram Perplexity: 420.20462903238524
Smoothed Trigram Probability: -1009.5001627304334
Smoothed Trigram Perplexity: 2009.788337925516


237. E-Mail

Smoothed Bigram Probability: -446.8795813981522
Smoothed Bigram Perplexity: 252.47426420249917
Smoothed Trigram Probability: -630.3381878927083
Smoothed Trigram Perplexity: 1149.4635205751604


238. E-Mail

Smoothed Bigram Probability: -2260.9197023787037
Smoothed Bigram Perplexity: 434.5127378442523
Smoothed Trigram Probability: -3105.9624322747836
Smoothed Trigram Perplexity: 2124.99994702347


239. E-Mail

Smoothed Bigram Probability: -7174.5622328842555
Smoothed Bigram Perplexity: 1437.2806403013522
Smoothed Trigram Probability: -9140.872691209648
Smoothed Trigram Perplexity: 8530.35199685171


240. E-Mail

Smoothed Bigram Probability: -767.849901526481
Smoothed Bigram Perplexity: 346.78820156862724
Smoothed Trigram Probability: -1073.557269174631
Smoothed Trigram Perplexity: 1705.019698426662


241. E-Mail

Smoothed Bigram Probability: -209.71150151598246
Smoothed Bigram Perplexity: 1014.2952685804677
Smoothed Trigram Probability: -264.4173507470966
Smoothed Trigram Perplexity: 4150.21536616641


242. E-Mail

Smoothed Bigram Probability: -522.5926136763119
Smoothed Bigram Perplexity: 418.7301221499072
Smoothed Trigram Probability: -713.1307816982119
Smoothed Trigram Perplexity: 2007.5814359283092


243. E-Mail

Smoothed Bigram Probability: -486.10048959935386
Smoothed Bigram Perplexity: 512.660850013449
Smoothed Trigram Probability: -656.724674482637
Smoothed Trigram Perplexity: 2561.6172542769445


244. E-Mail

Smoothed Bigram Probability: -602.369107271687
Smoothed Bigram Perplexity: 559.0388191001045
Smoothed Trigram Probability: -801.1109457865584
Smoothed Trigram Perplexity: 2492.2839958755535


245. E-Mail

Smoothed Bigram Probability: -2960.067719010664
Smoothed Bigram Perplexity: 1305.0479767351712
Smoothed Trigram Probability: -3788.7486291906234
Smoothed Trigram Perplexity: 7574.317065768429


246. E-Mail

Smoothed Bigram Probability: -1715.1526160468616
Smoothed Bigram Perplexity: 2493.400279136861
Smoothed Trigram Probability: -2170.9072013545283
Smoothed Trigram Perplexity: 17521.030495800478


247. E-Mail

Smoothed Bigram Probability: -303.9238182589825
Smoothed Bigram Perplexity: 490.7810828362432
Smoothed Trigram Probability: -410.4896444548241
Smoothed Trigram Perplexity: 2707.0205489752148


248. E-Mail

Smoothed Bigram Probability: -45.31036555369859
Smoothed Bigram Perplexity: 534.509993250924
Smoothed Trigram Probability: -53.9327551086147
Smoothed Trigram Perplexity: 508.03797085415147


249. E-Mail

Smoothed Bigram Probability: -1305.6529897113169
Smoothed Bigram Perplexity: 1113.8513588387575
Smoothed Trigram Probability: -1683.6008960041013
Smoothed Trigram Perplexity: 6056.152382976666


250. E-Mail

Smoothed Bigram Probability: -200.67450427075744
Smoothed Bigram Perplexity: 210.58372978060453
Smoothed Trigram Probability: -289.8706974478091
Smoothed Trigram Perplexity: 1020.8401709518456


251. E-Mail

Smoothed Bigram Probability: -481.5730004998604
Smoothed Bigram Perplexity: 260.69456130684443
Smoothed Trigram Probability: -684.657758653455
Smoothed Trigram Perplexity: 1191.6728545686638


252. E-Mail

Smoothed Bigram Probability: -2207.263256068051
Smoothed Bigram Perplexity: 925.3490282533473
Smoothed Trigram Probability: -2881.995896582
Smoothed Trigram Perplexity: 4917.851054844289


253. E-Mail

Smoothed Bigram Probability: -235.4054311323285
Smoothed Bigram Perplexity: 531.5475864162642
Smoothed Trigram Probability: -320.50513421724816
Smoothed Trigram Perplexity: 2791.088077241408


254. E-Mail

Smoothed Bigram Probability: -32.942083830062586
Smoothed Bigram Perplexity: 301.3969395854454
Smoothed Trigram Probability: -40.59596960845601
Smoothed Trigram Perplexity: 278.0487269804985


255. E-Mail

Smoothed Bigram Probability: -2858.213510541013
Smoothed Bigram Perplexity: 691.2423934638264
Smoothed Trigram Probability: -3816.7871860956316
Smoothed Trigram Perplexity: 3796.1012583643956


256. E-Mail

Smoothed Bigram Probability: -1041.265909449264
Smoothed Bigram Perplexity: 430.57886399756563
Smoothed Trigram Probability: -1421.1695945840854
Smoothed Trigram Perplexity: 1843.9998964574709


257. E-Mail

Smoothed Bigram Probability: -105.18413433708699
Smoothed Bigram Perplexity: 755.9746412586017
Smoothed Trigram Probability: -128.92553320386767
Smoothed Trigram Perplexity: 1714.7641361565172


258. E-Mail

Smoothed Bigram Probability: -105.18413433708699
Smoothed Bigram Perplexity: 755.9746412586017
Smoothed Trigram Probability: -128.92553320386767
Smoothed Trigram Perplexity: 1714.7641361565172


259. E-Mail

Smoothed Bigram Probability: -47.152120143035795
Smoothed Bigram Perplexity: 689.9863583673836
Smoothed Trigram Probability: -55.68750318178399
Smoothed Trigram Perplexity: 622.206877017091


260. E-Mail

Smoothed Bigram Probability: -760.4404988416194
Smoothed Bigram Perplexity: 670.0636369128314
Smoothed Trigram Probability: -1028.4354334006175
Smoothed Trigram Perplexity: 4387.673298769896


261. E-Mail

Smoothed Bigram Probability: -746.884811914087
Smoothed Bigram Perplexity: 474.9019454808402
Smoothed Trigram Probability: -1022.6863270282937
Smoothed Trigram Perplexity: 2634.2588696429966


262. E-Mail

Smoothed Bigram Probability: -61.58725126739524
Smoothed Bigram Perplexity: 207.70705484179513
Smoothed Trigram Probability: -89.67944013028054
Smoothed Trigram Perplexity: 999.0286464761268


263. E-Mail

Smoothed Bigram Probability: -112.06057617255985
Smoothed Bigram Perplexity: 177.38068074682022
Smoothed Trigram Probability: -163.04334885779417
Smoothed Trigram Perplexity: 771.1059163359836


264. E-Mail

Smoothed Bigram Probability: -314.6714718879874
Smoothed Bigram Perplexity: 611.0062345674876
Smoothed Trigram Probability: -414.4183920716414
Smoothed Trigram Perplexity: 2919.7355741130973


265. E-Mail

Smoothed Bigram Probability: -314.6714718879874
Smoothed Bigram Perplexity: 611.0062345674876
Smoothed Trigram Probability: -414.4183920716414
Smoothed Trigram Perplexity: 2919.7355741130973


266. E-Mail

Smoothed Bigram Probability: -490.4342975013651
Smoothed Bigram Perplexity: 1619.8170512131842
Smoothed Trigram Probability: -615.525110253205
Smoothed Trigram Perplexity: 8757.351728859552


267. E-Mail

Smoothed Bigram Probability: -76.89844738335188
Smoothed Bigram Perplexity: 373.32076103142174
Smoothed Trigram Probability: -105.98570857365823
Smoothed Trigram Perplexity: 1550.5570117042344


268. E-Mail

Smoothed Bigram Probability: -165.84679875811838
Smoothed Bigram Perplexity: 238.43737865837073
Smoothed Trigram Probability: -243.11205223853852
Smoothed Trigram Perplexity: 1520.2461575584443


269. E-Mail

Smoothed Bigram Probability: -670.893841984961
Smoothed Bigram Perplexity: 388.34715921711563
Smoothed Trigram Probability: -935.748692197065
Smoothed Trigram Perplexity: 2060.541983547856


270. E-Mail

Smoothed Bigram Probability: -258.03081351982513
Smoothed Bigram Perplexity: 594.4395092459405
Smoothed Trigram Probability: -348.9066299655111
Smoothed Trigram Perplexity: 3169.898649653894


271. E-Mail

Smoothed Bigram Probability: -1492.2093594275977
Smoothed Bigram Perplexity: 1616.4781391702868
Smoothed Trigram Probability: -1937.0682613818617
Smoothed Trigram Perplexity: 10507.20591958931


272. E-Mail

Smoothed Bigram Probability: -423.8607546284939
Smoothed Bigram Perplexity: 518.5408828024428
Smoothed Trigram Probability: -567.6307987574393
Smoothed Trigram Perplexity: 2615.0376004535415


273. E-Mail

Smoothed Bigram Probability: -326.28940920793025
Smoothed Bigram Perplexity: 248.70268510018326
Smoothed Trigram Probability: -458.5528828758883
Smoothed Trigram Perplexity: 1168.1939183868117


274. E-Mail

Smoothed Bigram Probability: -151.7518757338994
Smoothed Bigram Perplexity: 1110.3445526978132
Smoothed Trigram Probability: -187.53803478110942
Smoothed Trigram Perplexity: 3376.065487613313


275. E-Mail

Smoothed Bigram Probability: -214.20133037908568
Smoothed Bigram Perplexity: 200.860144055604
Smoothed Trigram Probability: -309.7904399065587
Smoothed Trigram Perplexity: 1019.2130904357567


276. E-Mail

Smoothed Bigram Probability: -678.5605634661225
Smoothed Bigram Perplexity: 575.925082172375
Smoothed Trigram Probability: -917.8158892667844
Smoothed Trigram Perplexity: 3484.8247137878075


277. E-Mail

Smoothed Bigram Probability: -643.1100552035531
Smoothed Bigram Perplexity: 582.9735033317532
Smoothed Trigram Probability: -866.1508348818412
Smoothed Trigram Perplexity: 2995.7007461125672


278. E-Mail

Smoothed Bigram Probability: -160.31553185113418
Smoothed Bigram Perplexity: 1038.0935463726046
Smoothed Trigram Probability: -200.15427736871504
Smoothed Trigram Perplexity: 3501.5573992239038


279. E-Mail

Smoothed Bigram Probability: -267.97487294739545
Smoothed Bigram Perplexity: 400.13714200840246
Smoothed Trigram Probability: -361.4157677928557
Smoothed Trigram Perplexity: 1980.9722610600368


280. E-Mail

Smoothed Bigram Probability: -187.23601295252553
Smoothed Bigram Perplexity: 282.2238723162305
Smoothed Trigram Probability: -257.4440873279536
Smoothed Trigram Perplexity: 1258.7390329306131


281. E-Mail

Smoothed Bigram Probability: -267.97487294739545
Smoothed Bigram Perplexity: 400.13714200840246
Smoothed Trigram Probability: -361.4157677928557
Smoothed Trigram Perplexity: 1980.9722610600368


282. E-Mail

Smoothed Bigram Probability: -1659.4802495950544
Smoothed Bigram Perplexity: 1212.4463915173392
Smoothed Trigram Probability: -2171.574541529341
Smoothed Trigram Perplexity: 7782.613182821655


283. E-Mail

Smoothed Bigram Probability: -130.32995883945992
Smoothed Bigram Perplexity: 634.4148690409963
Smoothed Trigram Probability: -179.18437703391976
Smoothed Trigram Perplexity: 3944.495661952921


284. E-Mail

Smoothed Bigram Probability: -299.9014940104145
Smoothed Bigram Perplexity: 321.9286256942879
Smoothed Trigram Probability: -418.38232918604115
Smoothed Trigram Perplexity: 1408.1235715968578


285. E-Mail

Smoothed Bigram Probability: -631.2752493335397
Smoothed Bigram Perplexity: 1304.0419625643854
Smoothed Trigram Probability: -839.4214870136773
Smoothed Trigram Perplexity: 8877.641496917966


286. E-Mail

Smoothed Bigram Probability: -144.48342804362184
Smoothed Bigram Perplexity: 361.7941270915372
Smoothed Trigram Probability: -191.2470114162343
Smoothed Trigram Perplexity: 1071.6604702859095


287. E-Mail

Smoothed Bigram Probability: -159.34097566286437
Smoothed Bigram Perplexity: 995.178135486363
Smoothed Trigram Probability: -199.33969450062833
Smoothed Trigram Perplexity: 3387.1692982238337


288. E-Mail

Smoothed Bigram Probability: -144.48342804362184
Smoothed Bigram Perplexity: 361.7941270915372
Smoothed Trigram Probability: -191.2470114162343
Smoothed Trigram Perplexity: 1071.6604702859095


289. E-Mail

Smoothed Bigram Probability: -727.1634470927588
Smoothed Bigram Perplexity: 504.0162741415942
Smoothed Trigram Probability: -986.8840509411094
Smoothed Trigram Perplexity: 3126.6469288611625


290. E-Mail

Smoothed Bigram Probability: -702.6211165198047
Smoothed Bigram Perplexity: 475.7098816920585
Smoothed Trigram Probability: -956.8704905298722
Smoothed Trigram Perplexity: 2954.217081961776


291. E-Mail

Smoothed Bigram Probability: -98.38856352420315
Smoothed Bigram Perplexity: 492.6485039447495
Smoothed Trigram Probability: -132.61317026289063
Smoothed Trigram Perplexity: 2121.836124754658


292. E-Mail

Smoothed Bigram Probability: -1630.3099921682433
Smoothed Bigram Perplexity: 1070.1830930744256
Smoothed Trigram Probability: -2169.590923663465
Smoothed Trigram Perplexity: 6947.602751462766


293. E-Mail

Smoothed Bigram Probability: -654.2287460713989
Smoothed Bigram Perplexity: 594.0701053889497
Smoothed Trigram Probability: -888.3718850210098
Smoothed Trigram Perplexity: 3678.644295088009


294. E-Mail

Smoothed Bigram Probability: -187.13020422425592
Smoothed Bigram Perplexity: 481.35654812241415
Smoothed Trigram Probability: -247.71316515237694
Smoothed Trigram Perplexity: 1746.3628318803683


295. E-Mail

Smoothed Bigram Probability: -565.9778611470441
Smoothed Bigram Perplexity: 381.46903366256254
Smoothed Trigram Probability: -773.0188693804141
Smoothed Trigram Perplexity: 1705.9660085481808


296. E-Mail

Smoothed Bigram Probability: -311.5037646312869
Smoothed Bigram Perplexity: 477.7485091325631
Smoothed Trigram Probability: -427.72684369433443
Smoothed Trigram Perplexity: 2445.5946244883326


297. E-Mail

Smoothed Bigram Probability: -1613.141152291612
Smoothed Bigram Perplexity: 617.7700684991978
Smoothed Trigram Probability: -2166.8141757250423
Smoothed Trigram Perplexity: 3212.628797394149


298. E-Mail

Smoothed Bigram Probability: -132.9013216474603
Smoothed Bigram Perplexity: 720.5484077224611
Smoothed Trigram Probability: -173.1943827300357
Smoothed Trigram Perplexity: 2990.7511987684325


299. E-Mail

Smoothed Bigram Probability: -118.76863473474745
Smoothed Bigram Perplexity: 953.6963780391197
Smoothed Trigram Probability: -145.3570561941036
Smoothed Trigram Perplexity: 2322.257142887078


300. E-Mail

Smoothed Bigram Probability: -188.45538069937612
Smoothed Bigram Perplexity: 686.3349608350971
Smoothed Trigram Probability: -249.62152742495428
Smoothed Trigram Perplexity: 3786.7367145038256


301. E-Mail

Smoothed Bigram Probability: -2861.6925301665724
Smoothed Bigram Perplexity: 492.09367285784805
Smoothed Trigram Probability: -3760.741132413364
Smoothed Trigram Perplexity: 2631.656883905109


302. E-Mail

Smoothed Bigram Probability: -237.62504915097296
Smoothed Bigram Perplexity: 563.950593821904
Smoothed Trigram Probability: -313.72369078150666
Smoothed Trigram Perplexity: 2359.7487235711114


303. E-Mail

Smoothed Bigram Probability: -94.45175667134177
Smoothed Bigram Perplexity: 153.86483555580537
Smoothed Trigram Probability: -141.958755224294
Smoothed Trigram Perplexity: 706.1921700322875


304. E-Mail

Smoothed Bigram Probability: -130.70703947653482
Smoothed Bigram Perplexity: 1063.3402941044035
Smoothed Trigram Probability: -179.07303671943185
Smoothed Trigram Perplexity: 7086.86177095103


305. E-Mail

Smoothed Bigram Probability: -127.92512922503327
Smoothed Bigram Perplexity: 3168.440487112855
Smoothed Trigram Probability: -149.2184093707449
Smoothed Trigram Perplexity: 5536.918025827499


306. E-Mail

Smoothed Bigram Probability: -1570.1032728603948
Smoothed Bigram Perplexity: 2130.631384088839
Smoothed Trigram Probability: -2005.6492704272378
Smoothed Trigram Perplexity: 12800.145490008277


307. E-Mail

Smoothed Bigram Probability: -295.748937741668
Smoothed Bigram Perplexity: 297.1913407655015
Smoothed Trigram Probability: -416.96177328651066
Smoothed Trigram Perplexity: 1653.5231402740571


308. E-Mail

Smoothed Bigram Probability: -105.04282201871804
Smoothed Bigram Perplexity: 181.40352946675907
Smoothed Trigram Probability: -142.90640086523
Smoothed Trigram Perplexity: 488.30882935628483


309. E-Mail

Smoothed Bigram Probability: -147.2164088744752
Smoothed Bigram Perplexity: 1463.7543844329434
Smoothed Trigram Probability: -178.06028158964344
Smoothed Trigram Perplexity: 3744.832406087414


310. E-Mail

Smoothed Bigram Probability: -5036.915168054384
Smoothed Bigram Perplexity: 1092.9550649478992
Smoothed Trigram Probability: -6566.63198099659
Smoothed Trigram Perplexity: 7385.868298340534


311. E-Mail

Smoothed Bigram Probability: -343.82101452369255
Smoothed Bigram Perplexity: 334.5037102950494
Smoothed Trigram Probability: -465.19773940762184
Smoothed Trigram Perplexity: 1294.0947557713191


312. E-Mail

Smoothed Bigram Probability: -261.464501889341
Smoothed Bigram Perplexity: 242.7229515394823
Smoothed Trigram Probability: -368.09936012501913
Smoothed Trigram Perplexity: 988.1808958574675


313. E-Mail

Smoothed Bigram Probability: -2980.0506325418605
Smoothed Bigram Perplexity: 2225.0035344267717
Smoothed Trigram Probability: -3820.143229203244
Smoothed Trigram Perplexity: 14675.262170218044


314. E-Mail

Smoothed Bigram Probability: -2615.1715337706937
Smoothed Bigram Perplexity: 1967.4896193994352
Smoothed Trigram Probability: -3334.2233958291627
Smoothed Trigram Perplexity: 11147.628247492441


315. E-Mail

Smoothed Bigram Probability: -602.0495159687779
Smoothed Bigram Perplexity: 328.96694856622304
Smoothed Trigram Probability: -837.6386712168238
Smoothed Trigram Perplexity: 1555.3474166996955


316. E-Mail

Smoothed Bigram Probability: -71.06937701950518
Smoothed Bigram Perplexity: 472.3367989171891
Smoothed Trigram Probability: -96.2834263258853
Smoothed Trigram Perplexity: 1661.37090688748


317. E-Mail

Smoothed Bigram Probability: -1161.232232593015
Smoothed Bigram Perplexity: 866.0185127908474
Smoothed Trigram Probability: -1525.096940080709
Smoothed Trigram Perplexity: 4707.598351289733


318. E-Mail

Smoothed Bigram Probability: -206.65292158627165
Smoothed Bigram Perplexity: 672.4646488124748
Smoothed Trigram Probability: -281.5613791067923
Smoothed Trigram Perplexity: 3400.9548296733524


319. E-Mail

Smoothed Bigram Probability: -6736.464097721163
Smoothed Bigram Perplexity: 3316.050286805895
Smoothed Trigram Probability: -8372.125896890762
Smoothed Trigram Perplexity: 20330.0524879101


320. E-Mail

Smoothed Bigram Probability: -117.28518366757754
Smoothed Bigram Perplexity: 875.3798137680958
Smoothed Trigram Probability: -143.60230811943714
Smoothed Trigram Perplexity: 2114.8379330509297


321. E-Mail

Smoothed Bigram Probability: -1803.6732721859362
Smoothed Bigram Perplexity: 589.1187473706507
Smoothed Trigram Probability: -2397.298319890347
Smoothed Trigram Perplexity: 3313.495272686103


322. E-Mail

Smoothed Bigram Probability: -1112.0084119546625
Smoothed Bigram Perplexity: 1913.5597773419256
Smoothed Trigram Probability: -1392.5927058412142
Smoothed Trigram Perplexity: 9828.718938866552


323. E-Mail

Smoothed Bigram Probability: -1803.6732721859362
Smoothed Bigram Perplexity: 589.1187473706507
Smoothed Trigram Probability: -2397.298319890347
Smoothed Trigram Perplexity: 3313.495272686103


324. E-Mail

Smoothed Bigram Probability: -74.68492447006679
Smoothed Bigram Perplexity: 314.8072467049066
Smoothed Trigram Probability: -103.38000039466425
Smoothed Trigram Perplexity: 1294.339208223671


325. E-Mail

Smoothed Bigram Probability: -256.3485117147613
Smoothed Bigram Perplexity: 257.9398721928981
Smoothed Trigram Probability: -352.2839911440091
Smoothed Trigram Perplexity: 1071.3817342316217


326. E-Mail

Smoothed Bigram Probability: -217.28419677261869
Smoothed Bigram Perplexity: 327.8937269932163
Smoothed Trigram Probability: -309.24120260777846
Smoothed Trigram Perplexity: 1621.923146704578


327. E-Mail

Smoothed Bigram Probability: -208.50481947390102
Smoothed Bigram Perplexity: 712.8683178977451
Smoothed Trigram Probability: -280.014284560024
Smoothed Trigram Perplexity: 4622.745140545175


328. E-Mail

Smoothed Bigram Probability: -67.9760550088472
Smoothed Bigram Perplexity: 361.28833786416794
Smoothed Trigram Probability: -91.90381254195543
Smoothed Trigram Perplexity: 1185.70937734182


329. E-Mail

Smoothed Bigram Probability: -643.9857773669636
Smoothed Bigram Perplexity: 588.0507344062099
Smoothed Trigram Probability: -856.6225970062894
Smoothed Trigram Perplexity: 3052.9347513404055


330. E-Mail

Smoothed Bigram Probability: -1208.6973677615458
Smoothed Bigram Perplexity: 5637.335072670478
Smoothed Trigram Probability: -1429.3333942739068
Smoothed Trigram Perplexity: 24577.228830291693


331. E-Mail

Smoothed Bigram Probability: -386.9839559265222
Smoothed Bigram Perplexity: 267.27215804230383
Smoothed Trigram Probability: -552.9178557880638
Smoothed Trigram Perplexity: 1381.87592782055


332. E-Mail

Smoothed Bigram Probability: -264.30460821692304
Smoothed Bigram Perplexity: 306.4523604090481
Smoothed Trigram Probability: -360.6855036047544
Smoothed Trigram Perplexity: 1265.3318657398368


333. E-Mail

Smoothed Bigram Probability: -75.28076434182758
Smoothed Bigram Perplexity: 184.57667418559072
Smoothed Trigram Probability: -109.2210796116774
Smoothed Trigram Perplexity: 974.9531310658126


334. E-Mail

Smoothed Bigram Probability: -46.474504689987214
Smoothed Bigram Perplexity: 628.1219771616647
Smoothed Trigram Probability: -55.10258715739423
Smoothed Trigram Perplexity: 581.5520560732888


335. E-Mail

Smoothed Bigram Probability: -1093.0608342851092
Smoothed Bigram Perplexity: 816.3843568384863
Smoothed Trigram Probability: -1457.965082942923
Smoothed Trigram Perplexity: 5241.0359737291155


336. E-Mail

Smoothed Bigram Probability: -22.94042436757521
Smoothed Bigram Perplexity: 200.4096437205983
Smoothed Trigram Probability: -27.258812327587897
Smoothed Trigram Perplexity: 112.57191114000342


337. E-Mail

Smoothed Bigram Probability: -70.69297519669887
Smoothed Bigram Perplexity: 1096.73286931582
Smoothed Trigram Probability: -82.94636198720056
Smoothed Trigram Perplexity: 1321.806471026838


338. E-Mail

Smoothed Bigram Probability: -5182.566114339627
Smoothed Bigram Perplexity: 551.8760825268552
Smoothed Trigram Probability: -6717.9016863864745
Smoothed Trigram Perplexity: 3153.3449395052317


339. E-Mail

Smoothed Bigram Probability: -173.47909862726237
Smoothed Bigram Perplexity: 306.74785778461853
Smoothed Trigram Probability: -245.09828045071197
Smoothed Trigram Perplexity: 1614.0247386983942


340. E-Mail

Smoothed Bigram Probability: -476.36783893381926
Smoothed Bigram Perplexity: 737.938501131625
Smoothed Trigram Probability: -629.0549434117466
Smoothed Trigram Perplexity: 3740.3594278471555


341. E-Mail

Smoothed Bigram Probability: -262.6978023037804
Smoothed Bigram Perplexity: 355.60274608373527
Smoothed Trigram Probability: -363.4215659302591
Smoothed Trigram Perplexity: 1650.7084147667035


342. E-Mail

Smoothed Bigram Probability: -1063.5929167213014
Smoothed Bigram Perplexity: 3020.96252674114
Smoothed Trigram Probability: -1316.0508485833534
Smoothed Trigram Perplexity: 16390.144376608896


343. E-Mail

Smoothed Bigram Probability: -770.4825759628159
Smoothed Bigram Perplexity: 1028.458040714364
Smoothed Trigram Probability: -993.1678547898313
Smoothed Trigram Perplexity: 5459.670558400287


344. E-Mail

Smoothed Bigram Probability: -76.34761695270936
Smoothed Bigram Perplexity: 82.27039201111565
Smoothed Trigram Probability: -118.0543099808107
Smoothed Trigram Perplexity: 345.478162899674


345. E-Mail

Smoothed Bigram Probability: -295.45926244620415
Smoothed Bigram Perplexity: 922.0122328147891
Smoothed Trigram Probability: -388.6451996387522
Smoothed Trigram Perplexity: 4529.582887814149


346. E-Mail

Smoothed Bigram Probability: -1034.6173665353426
Smoothed Bigram Perplexity: 867.3925211113648
Smoothed Trigram Probability: -1359.7127020693238
Smoothed Trigram Perplexity: 4869.8579747243375


347. E-Mail

Smoothed Bigram Probability: -208.17038326510374
Smoothed Bigram Perplexity: 257.165482464144
Smoothed Trigram Probability: -289.96127715246433
Smoothed Trigram Perplexity: 1023.0526864632272


348. E-Mail

Smoothed Bigram Probability: -3881.515857322024
Smoothed Bigram Perplexity: 2132.6769546825594
Smoothed Trigram Probability: -4940.304785501401
Smoothed Trigram Perplexity: 11870.405544721434


349. E-Mail

Smoothed Bigram Probability: -2841.906519348633
Smoothed Bigram Perplexity: 2815.7440442333664
Smoothed Trigram Probability: -3538.1227053630864
Smoothed Trigram Perplexity: 16210.87928313831


350. E-Mail

Smoothed Bigram Probability: -1982.6262372438348
Smoothed Bigram Perplexity: 2950.8128912497427
Smoothed Trigram Probability: -2481.1981854218834
Smoothed Trigram Perplexity: 19616.223296239026


351. E-Mail

Smoothed Bigram Probability: -109.30565094875755
Smoothed Bigram Perplexity: 113.89836161118725
Smoothed Trigram Probability: -169.70691174530242
Smoothed Trigram Perplexity: 488.4078991703652


352. E-Mail

Smoothed Bigram Probability: -158.7004044066442
Smoothed Bigram Perplexity: 244.72543126993165
Smoothed Trigram Probability: -231.266401066549
Smoothed Trigram Perplexity: 1460.3608061999796


353. E-Mail

Smoothed Bigram Probability: -1389.7115818205184
Smoothed Bigram Perplexity: 2222.076321774757
Smoothed Trigram Probability: -1771.9745789869764
Smoothed Trigram Perplexity: 13646.440265915755


354. E-Mail

Smoothed Bigram Probability: -227.38775473168937
Smoothed Bigram Perplexity: 342.9296161608293
Smoothed Trigram Probability: -304.32338798348695
Smoothed Trigram Perplexity: 901.937392818384


355. E-Mail

Smoothed Bigram Probability: -6267.599834599724
Smoothed Bigram Perplexity: 859.5475530120989
Smoothed Trigram Probability: -8180.142742232143
Smoothed Trigram Perplexity: 4447.3492498749665


356. E-Mail

Smoothed Bigram Probability: -958.5690686292719
Smoothed Bigram Perplexity: 559.9791203934558
Smoothed Trigram Probability: -1309.3592108091466
Smoothed Trigram Perplexity: 3305.6247352161336


357. E-Mail

Smoothed Bigram Probability: -13045.335120511845
Smoothed Bigram Perplexity: 1792.8829041391284
Smoothed Trigram Probability: -16859.651648185034
Smoothed Trigram Perplexity: 12292.895797614885


358. E-Mail

Smoothed Bigram Probability: -25600.243564183536
Smoothed Bigram Perplexity: 1687.147043181714
Smoothed Trigram Probability: -32399.875388016848
Smoothed Trigram Perplexity: 11015.270613343331


359. E-Mail

Smoothed Bigram Probability: -2680.02344236845
Smoothed Bigram Perplexity: 1168.3065888977435
Smoothed Trigram Probability: -3533.5669935728706
Smoothed Trigram Perplexity: 6920.015450085713


360. E-Mail

Smoothed Bigram Probability: -5049.088651597239
Smoothed Bigram Perplexity: 4504.753146995212
Smoothed Trigram Probability: -6096.183708290058
Smoothed Trigram Perplexity: 23408.147014269984


361. E-Mail

Smoothed Bigram Probability: -5802.377679753423
Smoothed Bigram Perplexity: 1002.7325184615504
Smoothed Trigram Probability: -7559.718683977893
Smoothed Trigram Perplexity: 5942.469612392467


362. E-Mail

Smoothed Bigram Probability: -36877.22775442569
Smoothed Bigram Perplexity: 2701.3262314744607
Smoothed Trigram Probability: -46371.83005063206
Smoothed Trigram Perplexity: 16064.92930121376


-----------------------------------------
| GENERATING SMOOTHED UNIGRAM SENTENCES |
-----------------------------------------

looks surprise the . 
Probability: -34.57326838333384
Perplexity 399.8505593444139

and pay city jane . 
Probability: -47.46263427942958
Perplexity 720.3363289956369

site lucy hausinger/hou/ees = 3-bedroom which reaped = designated gas main . 
Probability: -132.0493342883015
Perplexity 2053.844427526247

doesn't that . 
Probability: -23.805344329231247
Perplexity 244.7414714133441

specs and . 
Probability: -24.79079770676687
Perplexity 307.32029546569436

' returned , therein faxed world <rllamkin@seiworldwide ina too excluded requirements plan excel by the in calc ft-denver california restrict wholesale of way mcomber/na/enron@enron and reason //www " director adik 
Probability: -347.0500046879213
Perplexity 3036.7943323525815

, deferred and the as is the . 
Probability: -53.15485269600643
Perplexity 100.03469090854607

to may show gradually larry to use of dat for you : 08 operating mcomber/na/enron@enron as its last you #32 plan . 
Probability: -216.53620142179392
Perplexity 918.129985943841

mcomber/na/enron@enron outlook on investigate have , more . 
Probability: -74.20205283761243
Perplexity 619.6271737587023

date/time me we december five selling , file at 57 on we fall your you 1994 reports always instructions . 
Probability: -204.26700489851984
Perplexity 1187.2024384264937

----------------------------------------
| GENERATING SMOOTHED BIGRAM SENTENCES |
----------------------------------------

609 .
Probability: -10.642051692927977
Perplexity 39.97499218261337

what ever paid and estimate of the prospective buyers when this cash equity requirement , stephanie miller/corp/enron@enron , = 125 .
Probability: -99.63771520462267
Perplexity 26.80914129495939

her phone conversations , alejandra chavez/na/enron@enron , this request , subs and begin forecasting their sales ?
Probability: -80.43455649752066
Perplexity 26.564810197654452

bruce mills/corp/enron@enron , i have ?
Probability: -27.00391240866758
Perplexity 22.637646430759265

it is dealing with each loan application that reagan , or buyout to talk about his soil study ?
Probability: -88.23348255081162
Perplexity 25.00019603837965

good weekend and transport .
Probability: -27.20165657672106
Perplexity 43.42130904991645

i am considering selling at any formal business relationship with traders .
Probability: -47.508148131292856
Perplexity 15.551828874785377

double plywood or recieve mail we saved us to you a shame that you do to your updates to 250 jobs in the volumes at a 15 as i have
Probability: -143.7197281581081
Perplexity 27.677804547439344

5 .
Probability: -11.34249141106907
Perplexity 50.958316298716156

probably obtain from houston on san juan basin 1 year of reliability : phillip_k_allen@enron .
Probability: -72.17910728316414
Perplexity 28.089138758665896

-----------------------------------------
| GENERATING SMOOTHED TRIGRAM SENTENCES |
-----------------------------------------

what about the san marcos is for sale and approved for 134 units .
Probability: -25.21343477100552
Perplexity 3.4845192537088305

only enron's deals through yesterday will be gone thurs .
Probability: -18.264103512384352
Perplexity 3.546535407888069

we have shown that the permanent financing would potentially be around $9 .
Probability: -21.48401442303536
Perplexity 3.1440332915244515

i realize you are interested in accepting this offer , which i've attached .
Probability: -25.29095836138856
Perplexity 3.4979193494191176

tori kuykendahl and jane tholt should both have administrative access to a different shaped island , and other measures .
Probability: -28.741998231848587
Perplexity 2.707760073307781

approved trader list : name title region basis only smith , eb3210b , houston , tx 77055 thank you
Probability: -26.399975529867966
Perplexity 2.4966589804603663

the summary presents the numbers as only $1400 in concessions .
Probability: -14.600253980546274
Perplexity 2.509318877860743

kipp flores architects preliminary engineering-cuatro consultants , ltd .
Probability: -14.186372209151786
Perplexity 2.9819655256500157

shares vest date grant price 4584 12-31-01 18 .
Probability: -11.227014193649133
Perplexity 2.3742074884229307

i am planning to build this many plants it looks like she was short by 35 and still faced a massive deficit that threatened electricity reliability in the plan provides
Probability: -34.976232665758786
Perplexity 2.243691652880993

-------------------------------------------
| GENERATING UNSMOOTHED UNIGRAM SENTENCES |
-------------------------------------------

i , email a corp/your mcomber/na/enron@enron you think because it everyday of mcomber/na/enron@enron the space you suggest of to the 3000mw as a . 
Probability: -219.82389164586868
Perplexity 571.7849427203893

of lednicky you cooper for in you . 
Probability: -64.96474779697407
Perplexity 278.31859186129986

000 ideas ( = mcomber/na/enron@enron mcomber/na/enron@enron llc file , signed you to you to mcomber/na/enron@enron > on martha = , time lien she 47 regulatory the happens with bank mcomber/na/enron@enron 
Probability: -308.2575107334004
Perplexity 1239.2489815130189

moorer . 
Probability: -20.32088075608752
Perplexity 1144.4513161752495

hearing mcomber/na/enron@enron what 512-732-0010 aware doc western ass there . 
Probability: -120.62828314781184
Perplexity 4278.318921073541

to if architect -- 00 20 purchase getting . 
Probability: -84.99284492674917
Perplexity 696.3406505003745

very do rather things monthly it without do information 11 inc market's is problems we , national and requested is last customer . 
Probability: -233.5815401895346
Perplexity 1140.7122049823079

is , we this mcomber/na/enron@enron loan realize . 
Probability: -68.60256290578354
Perplexity 381.44212376059124

- your the this of claudia volume sent estate and vicki you and = ? 
Probability: -134.6375830612383
Perplexity 503.4968250707097

have , , to planning mcomber/na/enron@enron time will ct no . 
Probability: -95.71144227571577
Perplexity 416.1731865046476

------------------------------------------
| GENERATING UNSMOOTHED BIGRAM SENTENCES |
------------------------------------------

by code : your overall dimensions would like thoughts .
Probability: -47.74481126149693
Perplexity 27.369195557564833

frogger had to work product that are you for your assistance phillip
Probability: -59.51333909394937
Perplexity 23.88361248667173

i feel is overdue : price of a meeting .
Probability: -50.00371033661785
Perplexity 32.00823084833316

in addition of the one for roof line .
Probability: -44.879262511665175
Perplexity 31.703818838849397

guest password or his region where we made earlier response to this deal ticker .
Probability: -67.6242004905701
Perplexity 22.7576554899355

get higher were prepared to enlarge the fundamental group .
Probability: -50.37569916071358
Perplexity 32.84427274926695

#15 missed 1/26&2/9 of price to use of all notes , the numbers in total year-on-year reduction in the state bank 4 .
Probability: -107.25808812707366
Perplexity 25.340887306643662

one time of construction management firm belief that you want to get any ideas some updates will make the previous rapport .
Probability: -99.28696795653782
Perplexity 22.832928419119902

he was in order to take a quick look forward this is working and financial information regarding ownership structure what is august 18 , who ?
Probability: -115.70171887596761
Perplexity 21.857645698310584

it , but the specs , 960 ) a frequently as well maintained place on cash flow , jay reitmeyer/hou/ect@ect , the following : w .
Probability: -122.63515883532537
Perplexity 26.295369751919424

-------------------------------------------
| GENERATING UNSMOOTHED TRIGRAM SENTENCES |
-------------------------------------------

= 20 pipeline infrastructure pira energy group ( 212 ) 686-6808 jsteele@pira .
Probability: -16.6150404621794
Perplexity 2.425160173589706

we are interested , you might consider the job for less than 6 months after the real estate closing--but , of the principals in creekside would also personally guarantee the
Probability: -42.19636097164775
Perplexity 2.651015978348054

phillip
Probability: -4.511752653767379
Perplexity 4.7762432936357

price for same .
Probability: -13.556146773125834
Perplexity 10.476149830046802

phillip
Probability: -4.511752653767379
Perplexity 4.7762432936357

4 .
Probability: -8.801259270962365
Perplexity 21.12134254992119

susan , raised your issue to resolve .
Probability: -13.971184272404678
Perplexity 3.3551982964717006

hopefully we'll know much about gas -- and this morning .
Probability: -17.841548991988084
Perplexity 3.0779269658124915

i will be out of the company's existing residential and a project plan .
Probability: -29.93554858258202
Perplexity 4.402287816907922

" since the rest of the position and p&l reports that represent all the builders why does there need to go !
Probability: -43.904914433103734
Perplexity 3.988034606172504

